{
  "project_info": {
    "project_number": "820697212484",
    "firebase_url": "https://timjek-bcda7.firebaseio.com",
    "project_id": "timjek-bcda7",
    "storage_bucket": "timjek-bcda7.appspot.com"
  },
  "client": [
    {
      "client_info": {
        "mobilesdk_app_id": "1:820697212484:android:755e84b5ece16b2a",
        "android_client_info": {
          "package_name": "com.timjek.driver.in"
        }
      },
      "oauth_client": [
        {
          "client_id": "820697212484-602938a77lkvu7ltnpci9u2daqekmdha.apps.googleusercontent.com",
          "client_type": 3
        }
      ],
      "api_key": [
        {
          "current_key": "AIzaSyAqaAy0dUhil3Jcx_MY8Nx_nEC58jyavxI"
        }
      ],
      "services": {
        "analytics_service": {
          "status": 1
        },
        "appinvite_service": {
          "status": 1,
          "other_platform_oauth_client": []
        },
        "ads_service": {
          "status": 2
        }
      }
    },
    {
      "client_info": {
        "mobilesdk_app_id": "1:820697212484:android:ef3c6bb7d902197b",
        "android_client_info": {
          "package_name": "com.timjek.penumpang"
        }
      },
      "oauth_client": [
        {
          "client_id": "820697212484-rhapdfcgif6far46pre0la8ci6f6c1r3.apps.googleusercontent.com",
          "client_type": 1,
          "android_info": {
            "package_name": "com.timjek.penumpang",
            "certificate_hash": "cc6ed8621e1cdaf1e85331f03c59e02c6b805a99"
          }
        },
        {
          "client_id": "820697212484-602938a77lkvu7ltnpci9u2daqekmdha.apps.googleusercontent.com",
          "client_type": 3
        }
      ],
      "api_key": [
        {
          "current_key": "AIzaSyAqaAy0dUhil3Jcx_MY8Nx_nEC58jyavxI"
        }
      ],
      "services": {
        "analytics_service": {
          "status": 1
        },
        "appinvite_service": {
          "status": 2,
          "other_platform_oauth_client": [
            {
              "client_id": "820697212484-602938a77lkvu7ltnpci9u2daqekmdha.apps.googleusercontent.com",
              "client_type": 3
            }
          ]
        },
        "ads_service": {
          "status": 2
        }
      }
    }
  ],
  "configuration_version": "1"
}